/* XPM */
static char * min_pressed_xpm[] = {
"16 16 3 1",
" 	c None",
".	c #3D3D3D",
"+	c #F2F2F2",
"................",
"................",
"................",
"................",
"................",
"................",
".....+...+......",
"......+.+.......",
".......+........",
"................",
"................",
"................",
"................",
"................",
"................",
"................"};
